Data Science Workshop - 2 Tidyverse
…
2.2.1 Let’s tidy it

dat |>
  pivot_longer(contains("week"),
               names_to = "week",
               values_to = "height_cm")

# A tibble: 75 × 3
   plant_id week  height_cm
      <int> <chr>     <dbl>
 1        1 week1     10.6 
 2        1 week2     14.2 
 3        1 week3     16.3 
 4        1 week4     22.3 
 5        1 week5     27.9 
 6        2 week1      7.19
 7        2 week2     10.6 
 8        2 week3     12.0 
 9        2 week4     15.1 
10        2 week5     19.4 
# … with 65 more rows

BAM! That is tidy data. 1. Every column is a variable – id, time, height. 2. Every row is an observation – a height measurement on a single plant. 3. Every cell is a single value.

dat |>
  pivot_longer(contains("week"),
               names_to = "week",
               values_to = "height_cm") |> 
  mutate(week = as.numeric(str_remove_all(week, "week")))

# A tibble: 75 × 3
   plant_id  week height_cm
      <int> <dbl>     <dbl>
 1        1     1     10.6 
 2        1     2     14.2 
 3        1     3     16.3 
 4        1     4     22.3 
 5        1     5     27.9 
 6        2     1      7.19
 7        2     2     10.6 
 8        2     3     12.0 
 9        2     4     15.1 
10        2     5     19.4 
# … with 65 more rows
…
# Try read_csv
read_csv("iris.csv")

Rows: 150 Columns: 5
── Column specification ────────────────────────────────────────────────────────
Delimiter: ","
chr (1): Species
dbl (4): Sepal.Length, Sepal.Width, Petal.Length, Petal.Width

ℹ Use `spec()` to retrieve the full column specification for this data.
ℹ Specify the column types or set `show_col_types = FALSE` to quiet this message.

# A tibble: 150 × 5
   Sepal.Length Sepal.Width Petal.Length Petal.Width Species
          <dbl>       <dbl>        <dbl>       <dbl> <chr>  
 1          5.1         3.5          1.4         0.2 setosa 
 2          4.9         3            1.4         0.2 setosa 
 3          4.7         3.2          1.3         0.2 setosa 
 4          4.6         3.1          1.5         0.2 setosa 
 5          5           3.6          1.4         0.2 setosa 
 6          5.4         3.9          1.7         0.4 setosa 
 7          4.6         3.4          1.4         0.3 setosa 
 8          5           3.4          1.5         0.2 setosa 
 9          4.4         2.9          1.4         0.2 setosa 
10          4.9         3.1          1.5         0.1 setosa 
# … with 140 more rows

# Set col_type as you import data -- allows you to define level order too
d_f <- read_csv("iris.csv",
                col_types = list(Species = col_factor(c("versicolor",
                                                        "setosa", 
                                                        "virginica"))))
d_f

# A tibble: 150 × 5
   Sepal.Length Sepal.Width Petal.Length Petal.Width Species
          <dbl>       <dbl>        <dbl>       <dbl> <fct>  
 1          5.1         3.5          1.4         0.2 setosa 
 2          4.9         3            1.4         0.2 setosa 
 3          4.7         3.2          1.3         0.2 setosa 
 4          4.6         3.1          1.5         0.2 setosa 
 5          5           3.6          1.4         0.2 setosa 
 6          5.4         3.9          1.7         0.4 setosa 
 7          4.6         3.4          1.4         0.3 setosa 
 8          5           3.4          1.5         0.2 setosa 
 9          4.4         2.9          1.4         0.2 setosa 
10          4.9         3.1          1.5         0.1 setosa 
# … with 140 more rows
…
ChickWeight |>
  glimpse()

Rows: 578
Columns: 4
$ weight <dbl> 42, 51, 59, 64, 76, 93, 106, 125, 149, 171, 199, 205, 40, 49, 5…
$ Time   <dbl> 0, 2, 4, 6, 8, 10, 12, 14, 16, 18, 20, 21, 0, 2, 4, 6, 8, 10, 1…
$ Chick  <ord> 1, 1, 1, 1, 1, 1, 1, 1, 1, 1, 1, 1, 2, 2, 2, 2, 2, 2, 2, 2, 2, …
$ Diet   <fct> 1, 1, 1, 1, 1, 1, 1, 1, 1, 1, 1, 1, 1, 1, 1, 1, 1, 1, 1, 1, 1, …

ChickWeight |>
  group_by(Chick, Diet) |>
  nest() 

# A tibble: 50 × 3
# Groups:   Chick, Diet [50]
   Chick Diet  data             
   <ord> <fct> <list>           
 1 1     1     <tibble [12 × 2]>
 2 2     1     <tibble [12 × 2]>
 3 3     1     <tibble [12 × 2]>
 4 4     1     <tibble [12 × 2]>
 5 5     1     <tibble [12 × 2]>
 6 6     1     <tibble [12 × 2]>
 7 7     1     <tibble [12 × 2]>
 8 8     1     <tibble [11 × 2]>
 9 9     1     <tibble [12 × 2]>
10 10    1     <tibble [12 × 2]>
# … with 40 more rows
…
tidy: constructs a tibble that summarizes the model’s statistical findings. This includes coefficients and p-values for each term in a regression, per-cluster information in clustering applications, or per-test information for multtest functions.

glance: construct a concise one-row summary of the model. This typically contains values such as R^2, adjusted R^2, and residual standard error that are computed once for the entire model.

ChickWeight |>
  group_by(Chick, Diet) |>
  nest() |>
  mutate(
    fit = map(data, ~ lm(weight ~ Time, data = .x)),
    tidied = map(fit, tidy),
    glanced = map(fit, glance)
  ) |> 
  unnest(tidied) 

# A tibble: 100 × 10
# Groups:   Chick, Diet [50]
   Chick Diet  data     fit    term    estim…¹ std.e…² stati…³  p.value glanced 
   <ord> <fct> <list>   <list> <chr>     <dbl>   <dbl>   <dbl>    <dbl> <list>  
 1 1     1     <tibble> <lm>   (Inter…   24.5    6.73     3.64 4.56e- 3 <tibble>
 2 1     1     <tibble> <lm>   Time       7.99   0.524   15.3  2.97e- 8 <tibble>
 3 2     1     <tibble> <lm>   (Inter…   24.7    4.93     5.01 5.26e- 4 <tibble>
 4 2     1     <tibble> <lm>   Time       8.72   0.384   22.7  6.15e-10 <tibble>
 5 3     1     <tibble> <lm>   (Inter…   23.2    5.08     4.56 1.04e- 3 <tibble>
 6 3     1     <tibble> <lm>   Time       8.49   0.396   21.5  1.08e- 9 <tibble>
 7 4     1     <tibble> <lm>   (Inter…   32.9    4.01     8.21 9.42e- 6 <tibble>
 8 4     1     <tibble> <lm>   Time       6.09   0.312   19.5  2.70e- 9 <tibble>
 9 5     1     <tibble> <lm>   (Inter…   16.9    7.56     2.24 4.93e- 2 <tibble>
10 5     1     <tibble> <lm>   Time      10.1    0.588   17.1  9.88e- 9 <tibble>
# … with 90 more rows, and abbreviated variable names ¹​estimate, ²​std.error,
#   ³​statistic
…
